[gd_scene load_steps=8 format=2]

[ext_resource path="res://Source/ArcadeWorld/Grid/Tiles/Tile.tscn" type="PackedScene" id=1]
[ext_resource path="res://Source/ArcadeWorld/Grid/Tiles/VanishingTile.gd" type="Script" id=2]

[sub_resource type="SpatialMaterial" id=1]
resource_name = "None"
albedo_color = Color( 0.8, 0.8, 0.8, 1 )
metallic = 0.8

[sub_resource type="ArrayMesh" id=2]
resource_local_to_scene = true
surfaces/0 = {
"aabb": AABB( -1.02887, -1.02887, -1.02887, 2.05773, 2.05773, 2.05773 ),
"array_data": PoolByteArray( 0, 0, 128, 191, 51, 51, 115, 63, 51, 51, 115, 63, 75, 0, 154, 0, 127, 0, 0, 127, 0, 57, 0, 60, 0, 0, 128, 191, 51, 51, 115, 191, 51, 51, 115, 63, 75, 0, 154, 0, 127, 0, 0, 127, 0, 54, 0, 60, 44, 156, 120, 191, 44, 156, 120, 63, 44, 156, 120, 63, 75, 0, 154, 0, 127, 0, 0, 127, 0, 57, 0, 60, 44, 156, 120, 191, 44, 156, 120, 191, 44, 156, 120, 63, 75, 0, 154, 0, 127, 0, 0, 127, 0, 54, 0, 60, 0, 0, 128, 191, 51, 51, 115, 191, 51, 51, 115, 63, 137, 0, 213, 0, 127, 0, 0, 127, 0, 54, 0, 60, 0, 0, 128, 191, 51, 51, 115, 63, 51, 51, 115, 63, 137, 0, 213, 0, 127, 0, 0, 127, 0, 57, 0, 60, 234, 177, 131, 191, 234, 177, 131, 191, 234, 177, 131, 63, 137, 0, 213, 0, 127, 0, 0, 127, 0, 54, 0, 60, 234, 177, 131, 191, 234, 177, 131, 63, 234, 177, 131, 63, 137, 0, 213, 0, 127, 0, 0, 127, 0, 57, 0, 60, 0, 0, 128, 191, 51, 51, 115, 63, 51, 51, 115, 191, 75, 154, 0, 0, 127, 0, 0, 127, 0, 57, 0, 58, 0, 0, 128, 191, 51, 51, 115, 63, 51, 51, 115, 63, 75, 154, 0, 0, 127, 0, 0, 127, 0, 57, 0, 60, 44, 156, 120, 191, 44, 156, 120, 63, 44, 156, 120, 191, 75, 154, 0, 0, 127, 0, 0, 127, 0, 57, 0, 58, 44, 156, 120, 191, 44, 156, 120, 63, 44, 156, 120, 63, 75, 154, 0, 0, 127, 0, 0, 127, 0, 57, 0, 60, 0, 0, 128, 191, 51, 51, 115, 63, 51, 51, 115, 63, 137, 213, 0, 0, 127, 0, 0, 127, 0, 57, 0, 60, 0, 0, 128, 191, 51, 51, 115, 63, 51, 51, 115, 191, 137, 213, 0, 0, 127, 0, 0, 127, 0, 57, 0, 58, 234, 177, 131, 191, 234, 177, 131, 63, 234, 177, 131, 63, 137, 213, 0, 0, 127, 0, 0, 127, 0, 57, 0, 60, 234, 177, 131, 191, 234, 177, 131, 63, 234, 177, 131, 191, 137, 213, 0, 0, 127, 0, 0, 127, 0, 57, 0, 58, 0, 0, 128, 191, 51, 51, 115, 191, 51, 51, 115, 191, 75, 0, 102, 0, 127, 0, 0, 129, 0, 54, 0, 58, 0, 0, 128, 191, 51, 51, 115, 63, 51, 51, 115, 191, 75, 0, 102, 0, 127, 0, 0, 129, 0, 57, 0, 58, 44, 156, 120, 191, 44, 156, 120, 191, 44, 156, 120, 191, 75, 0, 102, 0, 127, 0, 0, 129, 0, 54, 0, 58, 44, 156, 120, 191, 44, 156, 120, 63, 44, 156, 120, 191, 75, 0, 102, 0, 127, 0, 0, 129, 0, 57, 0, 58, 0, 0, 128, 191, 51, 51, 115, 63, 51, 51, 115, 191, 137, 0, 43, 0, 127, 0, 0, 129, 0, 57, 0, 58, 0, 0, 128, 191, 51, 51, 115, 191, 51, 51, 115, 191, 137, 0, 43, 0, 127, 0, 0, 129, 0, 54, 0, 58, 234, 177, 131, 191, 234, 177, 131, 63, 234, 177, 131, 191, 137, 0, 43, 0, 127, 0, 0, 129, 0, 57, 0, 58, 234, 177, 131, 191, 234, 177, 131, 191, 234, 177, 131, 191, 137, 0, 43, 0, 127, 0, 0, 129, 0, 54, 0, 58, 0, 0, 128, 191, 51, 51, 115, 191, 51, 51, 115, 63, 75, 102, 0, 0, 127, 0, 0, 127, 0, 54, 0, 60, 0, 0, 128, 191, 51, 51, 115, 191, 51, 51, 115, 191, 75, 102, 0, 0, 127, 0, 0, 127, 0, 54, 0, 58, 44, 156, 120, 191, 44, 156, 120, 191, 44, 156, 120, 63, 75, 102, 0, 0, 127, 0, 0, 127, 0, 54, 0, 60, 44, 156, 120, 191, 44, 156, 120, 191, 44, 156, 120, 191, 75, 102, 0, 0, 127, 0, 0, 127, 0, 54, 0, 58, 0, 0, 128, 191, 51, 51, 115, 191, 51, 51, 115, 191, 137, 43, 0, 0, 127, 0, 0, 127, 0, 54, 0, 58, 0, 0, 128, 191, 51, 51, 115, 191, 51, 51, 115, 63, 137, 43, 0, 0, 127, 0, 0, 127, 0, 54, 0, 60, 234, 177, 131, 191, 234, 177, 131, 191, 234, 177, 131, 191, 137, 43, 0, 0, 127, 0, 0, 127, 0, 54, 0, 58, 234, 177, 131, 191, 234, 177, 131, 191, 234, 177, 131, 63, 137, 43, 0, 0, 127, 0, 0, 127, 0, 54, 0, 60, 51, 51, 115, 191, 51, 51, 115, 63, 0, 0, 128, 191, 102, 0, 75, 0, 127, 0, 0, 129, 0, 57, 0, 58, 51, 51, 115, 191, 51, 51, 115, 191, 0, 0, 128, 191, 102, 0, 75, 0, 127, 0, 0, 129, 0, 54, 0, 58, 44, 156, 120, 191, 44, 156, 120, 63, 44, 156, 120, 191, 102, 0, 75, 0, 127, 0, 0, 129, 0, 57, 0, 58, 44, 156, 120, 191, 44, 156, 120, 191, 44, 156, 120, 191, 102, 0, 75, 0, 127, 0, 0, 129, 0, 54, 0, 58, 51, 51, 115, 191, 51, 51, 115, 191, 0, 0, 128, 191, 43, 0, 137, 0, 127, 0, 0, 127, 0, 54, 0, 58, 51, 51, 115, 191, 51, 51, 115, 63, 0, 0, 128, 191, 43, 0, 137, 0, 127, 0, 0, 127, 0, 57, 0, 58, 234, 177, 131, 191, 234, 177, 131, 191, 234, 177, 131, 191, 43, 0, 137, 0, 127, 0, 0, 127, 0, 54, 0, 58, 234, 177, 131, 191, 234, 177, 131, 63, 234, 177, 131, 191, 43, 0, 137, 0, 127, 0, 0, 127, 0, 57, 0, 58, 51, 51, 115, 63, 51, 51, 115, 63, 0, 0, 128, 191, 0, 154, 75, 0, 127, 0, 0, 129, 0, 57, 0, 56, 51, 51, 115, 191, 51, 51, 115, 63, 0, 0, 128, 191, 0, 154, 75, 0, 127, 0, 0, 129, 0, 57, 0, 58, 44, 156, 120, 63, 44, 156, 120, 63, 44, 156, 120, 191, 0, 154, 75, 0, 127, 0, 0, 129, 0, 57, 0, 56, 44, 156, 120, 191, 44, 156, 120, 63, 44, 156, 120, 191, 0, 154, 75, 0, 127, 0, 0, 129, 0, 57, 0, 58, 51, 51, 115, 191, 51, 51, 115, 63, 0, 0, 128, 191, 0, 213, 137, 0, 127, 0, 0, 127, 0, 57, 0, 58, 51, 51, 115, 63, 51, 51, 115, 63, 0, 0, 128, 191, 0, 213, 137, 0, 127, 0, 0, 127, 0, 57, 0, 56, 234, 177, 131, 191, 234, 177, 131, 63, 234, 177, 131, 191, 0, 213, 137, 0, 127, 0, 0, 127, 0, 57, 0, 58, 234, 177, 131, 63, 234, 177, 131, 63, 234, 177, 131, 191, 0, 213, 137, 0, 127, 0, 0, 127, 0, 57, 0, 56, 51, 51, 115, 63, 51, 51, 115, 191, 0, 0, 128, 191, 154, 0, 75, 0, 127, 0, 0, 129, 0, 54, 0, 56, 51, 51, 115, 63, 51, 51, 115, 63, 0, 0, 128, 191, 154, 0, 75, 0, 127, 0, 0, 129, 0, 57, 0, 56, 44, 156, 120, 63, 44, 156, 120, 191, 44, 156, 120, 191, 154, 0, 75, 0, 127, 0, 0, 129, 0, 54, 0, 56, 44, 156, 120, 63, 44, 156, 120, 63, 44, 156, 120, 191, 154, 0, 75, 0, 127, 0, 0, 129, 0, 57, 0, 56, 51, 51, 115, 63, 51, 51, 115, 63, 0, 0, 128, 191, 213, 0, 137, 0, 127, 0, 0, 127, 0, 57, 0, 56, 51, 51, 115, 63, 51, 51, 115, 191, 0, 0, 128, 191, 213, 0, 137, 0, 127, 0, 0, 127, 0, 54, 0, 56, 234, 177, 131, 63, 234, 177, 131, 63, 234, 177, 131, 191, 213, 0, 137, 0, 127, 0, 0, 127, 0, 57, 0, 56, 234, 177, 131, 63, 234, 177, 131, 191, 234, 177, 131, 191, 213, 0, 137, 0, 127, 0, 0, 127, 0, 54, 0, 56, 51, 51, 115, 191, 51, 51, 115, 191, 0, 0, 128, 191, 0, 102, 75, 0, 127, 0, 0, 129, 0, 54, 0, 58, 51, 51, 115, 63, 51, 51, 115, 191, 0, 0, 128, 191, 0, 102, 75, 0, 127, 0, 0, 129, 0, 54, 0, 56, 44, 156, 120, 191, 44, 156, 120, 191, 44, 156, 120, 191, 0, 102, 75, 0, 127, 0, 0, 129, 0, 54, 0, 58, 44, 156, 120, 63, 44, 156, 120, 191, 44, 156, 120, 191, 0, 102, 75, 0, 127, 0, 0, 129, 0, 54, 0, 56, 51, 51, 115, 63, 51, 51, 115, 191, 0, 0, 128, 191, 0, 43, 137, 0, 127, 0, 0, 127, 0, 54, 0, 56, 51, 51, 115, 191, 51, 51, 115, 191, 0, 0, 128, 191, 0, 43, 137, 0, 127, 0, 0, 127, 0, 54, 0, 58, 234, 177, 131, 63, 234, 177, 131, 191, 234, 177, 131, 191, 0, 43, 137, 0, 127, 0, 0, 127, 0, 54, 0, 56, 234, 177, 131, 191, 234, 177, 131, 191, 234, 177, 131, 191, 0, 43, 137, 0, 127, 0, 0, 127, 0, 54, 0, 58, 0, 0, 128, 63, 51, 51, 115, 63, 51, 51, 115, 191, 181, 0, 102, 0, 127, 0, 0, 129, 0, 57, 0, 56, 0, 0, 128, 63, 51, 51, 115, 191, 51, 51, 115, 191, 181, 0, 102, 0, 127, 0, 0, 129, 0, 54, 0, 56, 44, 156, 120, 63, 44, 156, 120, 63, 44, 156, 120, 191, 181, 0, 102, 0, 127, 0, 0, 129, 0, 57, 0, 56, 44, 156, 120, 63, 44, 156, 120, 191, 44, 156, 120, 191, 181, 0, 102, 0, 127, 0, 0, 129, 0, 54, 0, 56, 0, 0, 128, 63, 51, 51, 115, 191, 51, 51, 115, 191, 119, 0, 43, 0, 127, 0, 0, 129, 0, 54, 0, 56, 0, 0, 128, 63, 51, 51, 115, 63, 51, 51, 115, 191, 119, 0, 43, 0, 127, 0, 0, 129, 0, 57, 0, 56, 234, 177, 131, 63, 234, 177, 131, 191, 234, 177, 131, 191, 119, 0, 43, 0, 127, 0, 0, 129, 0, 54, 0, 56, 234, 177, 131, 63, 234, 177, 131, 63, 234, 177, 131, 191, 119, 0, 43, 0, 127, 0, 0, 129, 0, 57, 0, 56, 0, 0, 128, 63, 51, 51, 115, 63, 51, 51, 115, 63, 181, 154, 0, 0, 127, 0, 0, 127, 0, 57, 0, 52, 0, 0, 128, 63, 51, 51, 115, 63, 51, 51, 115, 191, 181, 154, 0, 0, 127, 0, 0, 127, 0, 57, 0, 56, 44, 156, 120, 63, 44, 156, 120, 63, 44, 156, 120, 63, 181, 154, 0, 0, 127, 0, 0, 127, 0, 57, 0, 52, 44, 156, 120, 63, 44, 156, 120, 63, 44, 156, 120, 191, 181, 154, 0, 0, 127, 0, 0, 127, 0, 57, 0, 56, 0, 0, 128, 63, 51, 51, 115, 63, 51, 51, 115, 191, 119, 213, 0, 0, 127, 0, 0, 127, 0, 57, 0, 56, 0, 0, 128, 63, 51, 51, 115, 63, 51, 51, 115, 63, 119, 213, 0, 0, 127, 0, 0, 127, 0, 57, 0, 52, 234, 177, 131, 63, 234, 177, 131, 63, 234, 177, 131, 191, 119, 213, 0, 0, 127, 0, 0, 127, 0, 57, 0, 56, 234, 177, 131, 63, 234, 177, 131, 63, 234, 177, 131, 63, 119, 213, 0, 0, 127, 0, 0, 127, 0, 57, 0, 52, 0, 0, 128, 63, 51, 51, 115, 191, 51, 51, 115, 63, 181, 0, 154, 0, 127, 0, 0, 127, 0, 54, 0, 52, 0, 0, 128, 63, 51, 51, 115, 63, 51, 51, 115, 63, 181, 0, 154, 0, 127, 0, 0, 127, 0, 57, 0, 52, 44, 156, 120, 63, 44, 156, 120, 191, 44, 156, 120, 63, 181, 0, 154, 0, 127, 0, 0, 127, 0, 54, 0, 52, 44, 156, 120, 63, 44, 156, 120, 63, 44, 156, 120, 63, 181, 0, 154, 0, 127, 0, 0, 127, 0, 57, 0, 52, 0, 0, 128, 63, 51, 51, 115, 63, 51, 51, 115, 63, 119, 0, 213, 0, 127, 0, 0, 127, 0, 57, 0, 52, 0, 0, 128, 63, 51, 51, 115, 191, 51, 51, 115, 63, 119, 0, 213, 0, 127, 0, 0, 127, 0, 54, 0, 52, 234, 177, 131, 63, 234, 177, 131, 63, 234, 177, 131, 63, 119, 0, 213, 0, 127, 0, 0, 127, 0, 57, 0, 52, 234, 177, 131, 63, 234, 177, 131, 191, 234, 177, 131, 63, 119, 0, 213, 0, 127, 0, 0, 127, 0, 54, 0, 52, 0, 0, 128, 63, 51, 51, 115, 191, 51, 51, 115, 191, 181, 102, 0, 0, 127, 0, 0, 127, 0, 54, 0, 56, 0, 0, 128, 63, 51, 51, 115, 191, 51, 51, 115, 63, 181, 102, 0, 0, 127, 0, 0, 127, 0, 54, 0, 52, 44, 156, 120, 63, 44, 156, 120, 191, 44, 156, 120, 191, 181, 102, 0, 0, 127, 0, 0, 127, 0, 54, 0, 56, 44, 156, 120, 63, 44, 156, 120, 191, 44, 156, 120, 63, 181, 102, 0, 0, 127, 0, 0, 127, 0, 54, 0, 52, 0, 0, 128, 63, 51, 51, 115, 191, 51, 51, 115, 63, 119, 43, 0, 0, 127, 0, 0, 127, 0, 54, 0, 52, 0, 0, 128, 63, 51, 51, 115, 191, 51, 51, 115, 191, 119, 43, 0, 0, 127, 0, 0, 127, 0, 54, 0, 56, 234, 177, 131, 63, 234, 177, 131, 191, 234, 177, 131, 63, 119, 43, 0, 0, 127, 0, 0, 127, 0, 54, 0, 52, 234, 177, 131, 63, 234, 177, 131, 191, 234, 177, 131, 191, 119, 43, 0, 0, 127, 0, 0, 127, 0, 54, 0, 56, 51, 51, 115, 63, 51, 51, 115, 63, 0, 0, 128, 63, 154, 0, 181, 0, 127, 0, 0, 127, 0, 57, 0, 52, 51, 51, 115, 63, 51, 51, 115, 191, 0, 0, 128, 63, 154, 0, 181, 0, 127, 0, 0, 127, 0, 54, 0, 52, 44, 156, 120, 63, 44, 156, 120, 63, 44, 156, 120, 63, 154, 0, 181, 0, 127, 0, 0, 127, 0, 57, 0, 52, 44, 156, 120, 63, 44, 156, 120, 191, 44, 156, 120, 63, 154, 0, 181, 0, 127, 0, 0, 127, 0, 54, 0, 52, 51, 51, 115, 63, 51, 51, 115, 191, 0, 0, 128, 63, 213, 0, 119, 0, 127, 0, 0, 129, 0, 54, 0, 52, 51, 51, 115, 63, 51, 51, 115, 63, 0, 0, 128, 63, 213, 0, 119, 0, 127, 0, 0, 129, 0, 57, 0, 52, 234, 177, 131, 63, 234, 177, 131, 191, 234, 177, 131, 63, 213, 0, 119, 0, 127, 0, 0, 129, 0, 54, 0, 52, 234, 177, 131, 63, 234, 177, 131, 63, 234, 177, 131, 63, 213, 0, 119, 0, 127, 0, 0, 129, 0, 57, 0, 52, 51, 51, 115, 191, 51, 51, 115, 63, 0, 0, 128, 63, 0, 154, 181, 0, 127, 0, 0, 127, 0, 57, 0, 0, 51, 51, 115, 63, 51, 51, 115, 63, 0, 0, 128, 63, 0, 154, 181, 0, 127, 0, 0, 127, 0, 57, 0, 52, 44, 156, 120, 191, 44, 156, 120, 63, 44, 156, 120, 63, 0, 154, 181, 0, 127, 0, 0, 127, 0, 57, 0, 0, 44, 156, 120, 63, 44, 156, 120, 63, 44, 156, 120, 63, 0, 154, 181, 0, 127, 0, 0, 127, 0, 57, 0, 52, 51, 51, 115, 63, 51, 51, 115, 63, 0, 0, 128, 63, 0, 213, 119, 0, 127, 0, 0, 129, 0, 57, 0, 52, 51, 51, 115, 191, 51, 51, 115, 63, 0, 0, 128, 63, 0, 213, 119, 0, 127, 0, 0, 129, 0, 57, 0, 0, 234, 177, 131, 63, 234, 177, 131, 63, 234, 177, 131, 63, 0, 213, 119, 0, 127, 0, 0, 129, 0, 57, 0, 52, 234, 177, 131, 191, 234, 177, 131, 63, 234, 177, 131, 63, 0, 213, 119, 0, 127, 0, 0, 129, 0, 57, 0, 0, 51, 51, 115, 191, 51, 51, 115, 191, 0, 0, 128, 63, 102, 0, 181, 0, 127, 0, 0, 127, 0, 54, 0, 0, 51, 51, 115, 191, 51, 51, 115, 63, 0, 0, 128, 63, 102, 0, 181, 0, 127, 0, 0, 127, 0, 57, 0, 0, 44, 156, 120, 191, 44, 156, 120, 191, 44, 156, 120, 63, 102, 0, 181, 0, 127, 0, 0, 127, 0, 54, 0, 0, 44, 156, 120, 191, 44, 156, 120, 63, 44, 156, 120, 63, 102, 0, 181, 0, 127, 0, 0, 127, 0, 57, 0, 0, 51, 51, 115, 191, 51, 51, 115, 63, 0, 0, 128, 63, 43, 0, 119, 0, 127, 0, 0, 129, 0, 57, 0, 0, 51, 51, 115, 191, 51, 51, 115, 191, 0, 0, 128, 63, 43, 0, 119, 0, 127, 0, 0, 129, 0, 54, 0, 0, 234, 177, 131, 191, 234, 177, 131, 63, 234, 177, 131, 63, 43, 0, 119, 0, 127, 0, 0, 129, 0, 57, 0, 0, 234, 177, 131, 191, 234, 177, 131, 191, 234, 177, 131, 63, 43, 0, 119, 0, 127, 0, 0, 129, 0, 54, 0, 0, 51, 51, 115, 63, 51, 51, 115, 191, 0, 0, 128, 63, 0, 102, 181, 0, 127, 0, 0, 127, 0, 54, 0, 52, 51, 51, 115, 191, 51, 51, 115, 191, 0, 0, 128, 63, 0, 102, 181, 0, 127, 0, 0, 127, 0, 54, 0, 0, 44, 156, 120, 63, 44, 156, 120, 191, 44, 156, 120, 63, 0, 102, 181, 0, 127, 0, 0, 127, 0, 54, 0, 52, 44, 156, 120, 191, 44, 156, 120, 191, 44, 156, 120, 63, 0, 102, 181, 0, 127, 0, 0, 127, 0, 54, 0, 0, 51, 51, 115, 191, 51, 51, 115, 191, 0, 0, 128, 63, 0, 43, 119, 0, 127, 0, 0, 129, 0, 54, 0, 0, 51, 51, 115, 63, 51, 51, 115, 191, 0, 0, 128, 63, 0, 43, 119, 0, 127, 0, 0, 129, 0, 54, 0, 52, 234, 177, 131, 191, 234, 177, 131, 191, 234, 177, 131, 63, 0, 43, 119, 0, 127, 0, 0, 129, 0, 54, 0, 0, 234, 177, 131, 63, 234, 177, 131, 191, 234, 177, 131, 63, 0, 43, 119, 0, 127, 0, 0, 129, 0, 54, 0, 52, 51, 51, 115, 63, 0, 0, 128, 191, 51, 51, 115, 191, 0, 75, 102, 0, 127, 0, 0, 129, 0, 54, 0, 56, 51, 51, 115, 191, 0, 0, 128, 191, 51, 51, 115, 191, 0, 75, 102, 0, 127, 0, 0, 129, 0, 48, 0, 56, 44, 156, 120, 63, 44, 156, 120, 191, 44, 156, 120, 191, 0, 75, 102, 0, 127, 0, 0, 129, 0, 54, 0, 56, 44, 156, 120, 191, 44, 156, 120, 191, 44, 156, 120, 191, 0, 75, 102, 0, 127, 0, 0, 129, 0, 48, 0, 56, 51, 51, 115, 191, 0, 0, 128, 191, 51, 51, 115, 191, 0, 137, 43, 0, 127, 0, 0, 129, 0, 48, 0, 56, 51, 51, 115, 63, 0, 0, 128, 191, 51, 51, 115, 191, 0, 137, 43, 0, 127, 0, 0, 129, 0, 54, 0, 56, 234, 177, 131, 191, 234, 177, 131, 191, 234, 177, 131, 191, 0, 137, 43, 0, 127, 0, 0, 129, 0, 48, 0, 56, 234, 177, 131, 63, 234, 177, 131, 191, 234, 177, 131, 191, 0, 137, 43, 0, 127, 0, 0, 129, 0, 54, 0, 56, 51, 51, 115, 63, 0, 0, 128, 191, 51, 51, 115, 63, 154, 75, 0, 0, 127, 0, 0, 127, 0, 54, 0, 52, 51, 51, 115, 63, 0, 0, 128, 191, 51, 51, 115, 191, 154, 75, 0, 0, 127, 0, 0, 127, 0, 54, 0, 56, 44, 156, 120, 63, 44, 156, 120, 191, 44, 156, 120, 63, 154, 75, 0, 0, 127, 0, 0, 127, 0, 54, 0, 52, 44, 156, 120, 63, 44, 156, 120, 191, 44, 156, 120, 191, 154, 75, 0, 0, 127, 0, 0, 127, 0, 54, 0, 56, 51, 51, 115, 63, 0, 0, 128, 191, 51, 51, 115, 191, 213, 137, 0, 0, 127, 0, 0, 127, 0, 54, 0, 56, 51, 51, 115, 63, 0, 0, 128, 191, 51, 51, 115, 63, 213, 137, 0, 0, 127, 0, 0, 127, 0, 54, 0, 52, 234, 177, 131, 63, 234, 177, 131, 191, 234, 177, 131, 191, 213, 137, 0, 0, 127, 0, 0, 127, 0, 54, 0, 56, 234, 177, 131, 63, 234, 177, 131, 191, 234, 177, 131, 63, 213, 137, 0, 0, 127, 0, 0, 127, 0, 54, 0, 52, 51, 51, 115, 191, 0, 0, 128, 191, 51, 51, 115, 63, 0, 75, 154, 0, 127, 0, 0, 127, 0, 48, 0, 52, 51, 51, 115, 63, 0, 0, 128, 191, 51, 51, 115, 63, 0, 75, 154, 0, 127, 0, 0, 127, 0, 54, 0, 52, 44, 156, 120, 191, 44, 156, 120, 191, 44, 156, 120, 63, 0, 75, 154, 0, 127, 0, 0, 127, 0, 48, 0, 52, 44, 156, 120, 63, 44, 156, 120, 191, 44, 156, 120, 63, 0, 75, 154, 0, 127, 0, 0, 127, 0, 54, 0, 52, 51, 51, 115, 63, 0, 0, 128, 191, 51, 51, 115, 63, 0, 137, 213, 0, 127, 0, 0, 127, 0, 54, 0, 52, 51, 51, 115, 191, 0, 0, 128, 191, 51, 51, 115, 63, 0, 137, 213, 0, 127, 0, 0, 127, 0, 48, 0, 52, 234, 177, 131, 63, 234, 177, 131, 191, 234, 177, 131, 63, 0, 137, 213, 0, 127, 0, 0, 127, 0, 54, 0, 52, 234, 177, 131, 191, 234, 177, 131, 191, 234, 177, 131, 63, 0, 137, 213, 0, 127, 0, 0, 127, 0, 48, 0, 52, 51, 51, 115, 191, 0, 0, 128, 191, 51, 51, 115, 191, 102, 75, 0, 0, 127, 0, 0, 127, 0, 48, 0, 56, 51, 51, 115, 191, 0, 0, 128, 191, 51, 51, 115, 63, 102, 75, 0, 0, 127, 0, 0, 127, 0, 48, 0, 52, 44, 156, 120, 191, 44, 156, 120, 191, 44, 156, 120, 191, 102, 75, 0, 0, 127, 0, 0, 127, 0, 48, 0, 56, 44, 156, 120, 191, 44, 156, 120, 191, 44, 156, 120, 63, 102, 75, 0, 0, 127, 0, 0, 127, 0, 48, 0, 52, 51, 51, 115, 191, 0, 0, 128, 191, 51, 51, 115, 63, 43, 137, 0, 0, 127, 0, 0, 127, 0, 48, 0, 52, 51, 51, 115, 191, 0, 0, 128, 191, 51, 51, 115, 191, 43, 137, 0, 0, 127, 0, 0, 127, 0, 48, 0, 56, 234, 177, 131, 191, 234, 177, 131, 191, 234, 177, 131, 63, 43, 137, 0, 0, 127, 0, 0, 127, 0, 48, 0, 52, 234, 177, 131, 191, 234, 177, 131, 191, 234, 177, 131, 191, 43, 137, 0, 0, 127, 0, 0, 127, 0, 48, 0, 56, 51, 51, 115, 191, 0, 0, 128, 63, 51, 51, 115, 191, 0, 181, 102, 0, 127, 0, 0, 129, 0, 59, 0, 56, 51, 51, 115, 63, 0, 0, 128, 63, 51, 51, 115, 191, 0, 181, 102, 0, 127, 0, 0, 129, 0, 57, 0, 56, 44, 156, 120, 191, 44, 156, 120, 63, 44, 156, 120, 191, 0, 181, 102, 0, 127, 0, 0, 129, 0, 59, 0, 56, 44, 156, 120, 63, 44, 156, 120, 63, 44, 156, 120, 191, 0, 181, 102, 0, 127, 0, 0, 129, 0, 57, 0, 56, 51, 51, 115, 63, 0, 0, 128, 63, 51, 51, 115, 191, 0, 119, 43, 0, 127, 0, 0, 129, 0, 57, 0, 56, 51, 51, 115, 191, 0, 0, 128, 63, 51, 51, 115, 191, 0, 119, 43, 0, 127, 0, 0, 129, 0, 59, 0, 56, 234, 177, 131, 63, 234, 177, 131, 63, 234, 177, 131, 191, 0, 119, 43, 0, 127, 0, 0, 129, 0, 57, 0, 56, 234, 177, 131, 191, 234, 177, 131, 63, 234, 177, 131, 191, 0, 119, 43, 0, 127, 0, 0, 129, 0, 59, 0, 56, 51, 51, 115, 191, 0, 0, 128, 63, 51, 51, 115, 63, 102, 181, 0, 0, 127, 0, 0, 127, 0, 59, 0, 52, 51, 51, 115, 191, 0, 0, 128, 63, 51, 51, 115, 191, 102, 181, 0, 0, 127, 0, 0, 127, 0, 59, 0, 56, 44, 156, 120, 191, 44, 156, 120, 63, 44, 156, 120, 63, 102, 181, 0, 0, 127, 0, 0, 127, 0, 59, 0, 52, 44, 156, 120, 191, 44, 156, 120, 63, 44, 156, 120, 191, 102, 181, 0, 0, 127, 0, 0, 127, 0, 59, 0, 56, 51, 51, 115, 191, 0, 0, 128, 63, 51, 51, 115, 191, 43, 119, 0, 0, 127, 0, 0, 127, 0, 59, 0, 56, 51, 51, 115, 191, 0, 0, 128, 63, 51, 51, 115, 63, 43, 119, 0, 0, 127, 0, 0, 127, 0, 59, 0, 52, 234, 177, 131, 191, 234, 177, 131, 63, 234, 177, 131, 191, 43, 119, 0, 0, 127, 0, 0, 127, 0, 59, 0, 56, 234, 177, 131, 191, 234, 177, 131, 63, 234, 177, 131, 63, 43, 119, 0, 0, 127, 0, 0, 127, 0, 59, 0, 52, 51, 51, 115, 63, 0, 0, 128, 63, 51, 51, 115, 63, 0, 181, 154, 0, 127, 0, 0, 127, 0, 57, 0, 52, 51, 51, 115, 191, 0, 0, 128, 63, 51, 51, 115, 63, 0, 181, 154, 0, 127, 0, 0, 127, 0, 59, 0, 52, 44, 156, 120, 63, 44, 156, 120, 63, 44, 156, 120, 63, 0, 181, 154, 0, 127, 0, 0, 127, 0, 57, 0, 52, 44, 156, 120, 191, 44, 156, 120, 63, 44, 156, 120, 63, 0, 181, 154, 0, 127, 0, 0, 127, 0, 59, 0, 52, 51, 51, 115, 191, 0, 0, 128, 63, 51, 51, 115, 63, 0, 119, 213, 0, 127, 0, 0, 127, 0, 59, 0, 52, 51, 51, 115, 63, 0, 0, 128, 63, 51, 51, 115, 63, 0, 119, 213, 0, 127, 0, 0, 127, 0, 57, 0, 52, 234, 177, 131, 191, 234, 177, 131, 63, 234, 177, 131, 63, 0, 119, 213, 0, 127, 0, 0, 127, 0, 59, 0, 52, 234, 177, 131, 63, 234, 177, 131, 63, 234, 177, 131, 63, 0, 119, 213, 0, 127, 0, 0, 127, 0, 57, 0, 52, 51, 51, 115, 63, 0, 0, 128, 63, 51, 51, 115, 191, 154, 181, 0, 0, 127, 0, 0, 127, 0, 57, 0, 56, 51, 51, 115, 63, 0, 0, 128, 63, 51, 51, 115, 63, 154, 181, 0, 0, 127, 0, 0, 127, 0, 57, 0, 52, 44, 156, 120, 63, 44, 156, 120, 63, 44, 156, 120, 191, 154, 181, 0, 0, 127, 0, 0, 127, 0, 57, 0, 56, 44, 156, 120, 63, 44, 156, 120, 63, 44, 156, 120, 63, 154, 181, 0, 0, 127, 0, 0, 127, 0, 57, 0, 52, 51, 51, 115, 63, 0, 0, 128, 63, 51, 51, 115, 63, 213, 119, 0, 0, 127, 0, 0, 127, 0, 57, 0, 52, 51, 51, 115, 63, 0, 0, 128, 63, 51, 51, 115, 191, 213, 119, 0, 0, 127, 0, 0, 127, 0, 57, 0, 56, 234, 177, 131, 63, 234, 177, 131, 63, 234, 177, 131, 63, 213, 119, 0, 0, 127, 0, 0, 127, 0, 57, 0, 52, 234, 177, 131, 63, 234, 177, 131, 63, 234, 177, 131, 191, 213, 119, 0, 0, 127, 0, 0, 127, 0, 57, 0, 56 ),
"array_index_data": PoolByteArray( 0, 0, 1, 0, 2, 0, 2, 0, 1, 0, 3, 0, 4, 0, 5, 0, 6, 0, 6, 0, 5, 0, 7, 0, 8, 0, 9, 0, 10, 0, 10, 0, 9, 0, 11, 0, 12, 0, 13, 0, 14, 0, 14, 0, 13, 0, 15, 0, 16, 0, 17, 0, 18, 0, 18, 0, 17, 0, 19, 0, 20, 0, 21, 0, 22, 0, 22, 0, 21, 0, 23, 0, 24, 0, 25, 0, 26, 0, 26, 0, 25, 0, 27, 0, 28, 0, 29, 0, 30, 0, 30, 0, 29, 0, 31, 0, 32, 0, 33, 0, 34, 0, 34, 0, 33, 0, 35, 0, 36, 0, 37, 0, 38, 0, 38, 0, 37, 0, 39, 0, 40, 0, 41, 0, 42, 0, 42, 0, 41, 0, 43, 0, 44, 0, 45, 0, 46, 0, 46, 0, 45, 0, 47, 0, 48, 0, 49, 0, 50, 0, 50, 0, 49, 0, 51, 0, 52, 0, 53, 0, 54, 0, 54, 0, 53, 0, 55, 0, 56, 0, 57, 0, 58, 0, 58, 0, 57, 0, 59, 0, 60, 0, 61, 0, 62, 0, 62, 0, 61, 0, 63, 0, 64, 0, 65, 0, 66, 0, 66, 0, 65, 0, 67, 0, 68, 0, 69, 0, 70, 0, 70, 0, 69, 0, 71, 0, 72, 0, 73, 0, 74, 0, 74, 0, 73, 0, 75, 0, 76, 0, 77, 0, 78, 0, 78, 0, 77, 0, 79, 0, 80, 0, 81, 0, 82, 0, 82, 0, 81, 0, 83, 0, 84, 0, 85, 0, 86, 0, 86, 0, 85, 0, 87, 0, 88, 0, 89, 0, 90, 0, 90, 0, 89, 0, 91, 0, 92, 0, 93, 0, 94, 0, 94, 0, 93, 0, 95, 0, 96, 0, 97, 0, 98, 0, 98, 0, 97, 0, 99, 0, 100, 0, 101, 0, 102, 0, 102, 0, 101, 0, 103, 0, 104, 0, 105, 0, 106, 0, 106, 0, 105, 0, 107, 0, 108, 0, 109, 0, 110, 0, 110, 0, 109, 0, 111, 0, 112, 0, 113, 0, 114, 0, 114, 0, 113, 0, 115, 0, 116, 0, 117, 0, 118, 0, 118, 0, 117, 0, 119, 0, 120, 0, 121, 0, 122, 0, 122, 0, 121, 0, 123, 0, 124, 0, 125, 0, 126, 0, 126, 0, 125, 0, 127, 0, 128, 0, 129, 0, 130, 0, 130, 0, 129, 0, 131, 0, 132, 0, 133, 0, 134, 0, 134, 0, 133, 0, 135, 0, 136, 0, 137, 0, 138, 0, 138, 0, 137, 0, 139, 0, 140, 0, 141, 0, 142, 0, 142, 0, 141, 0, 143, 0, 144, 0, 145, 0, 146, 0, 146, 0, 145, 0, 147, 0, 148, 0, 149, 0, 150, 0, 150, 0, 149, 0, 151, 0, 152, 0, 153, 0, 154, 0, 154, 0, 153, 0, 155, 0, 156, 0, 157, 0, 158, 0, 158, 0, 157, 0, 159, 0, 160, 0, 161, 0, 162, 0, 162, 0, 161, 0, 163, 0, 164, 0, 165, 0, 166, 0, 166, 0, 165, 0, 167, 0, 168, 0, 169, 0, 170, 0, 170, 0, 169, 0, 171, 0, 172, 0, 173, 0, 174, 0, 174, 0, 173, 0, 175, 0, 176, 0, 177, 0, 178, 0, 178, 0, 177, 0, 179, 0, 180, 0, 181, 0, 182, 0, 182, 0, 181, 0, 183, 0, 184, 0, 185, 0, 186, 0, 186, 0, 185, 0, 187, 0, 188, 0, 189, 0, 190, 0, 190, 0, 189, 0, 191, 0 ),
"blend_shape_data": [  ],
"format": 97559,
"index_count": 288,
"material": SubResource( 1 ),
"name": "None",
"primitive": 4,
"skeleton_aabb": [  ],
"vertex_count": 192
}
surfaces/1 = {
"aabb": AABB( -0.971942, -0.971942, -0.971942, 1.94388, 1.94389, 1.94389 ),
"array_data": PoolByteArray( 49, 209, 120, 191, 49, 209, 120, 63, 49, 209, 120, 63, 129, 0, 0, 0, 0, 127, 0, 127, 0, 57, 0, 60, 49, 209, 120, 191, 49, 209, 120, 191, 49, 209, 120, 63, 129, 0, 0, 0, 0, 127, 0, 127, 0, 54, 0, 60, 49, 209, 120, 191, 49, 209, 120, 63, 49, 209, 120, 191, 129, 0, 0, 0, 0, 127, 0, 127, 0, 57, 0, 58, 49, 209, 120, 191, 49, 209, 120, 191, 49, 209, 120, 191, 129, 0, 0, 0, 0, 127, 0, 127, 0, 54, 0, 58, 49, 209, 120, 191, 49, 209, 120, 63, 49, 209, 120, 191, 0, 0, 129, 0, 0, 127, 0, 127, 0, 57, 0, 58, 49, 209, 120, 191, 49, 209, 120, 191, 49, 209, 120, 191, 0, 0, 129, 0, 0, 127, 0, 127, 0, 54, 0, 58, 49, 209, 120, 63, 49, 209, 120, 63, 49, 209, 120, 191, 0, 0, 129, 0, 0, 127, 0, 127, 0, 57, 0, 56, 49, 209, 120, 63, 49, 209, 120, 191, 49, 209, 120, 191, 0, 0, 129, 0, 0, 127, 0, 127, 0, 54, 0, 56, 49, 209, 120, 63, 49, 209, 120, 63, 49, 209, 120, 191, 127, 0, 0, 0, 0, 127, 0, 127, 0, 57, 0, 56, 49, 209, 120, 63, 49, 209, 120, 191, 49, 209, 120, 191, 127, 0, 0, 0, 0, 127, 0, 127, 0, 54, 0, 56, 49, 209, 120, 63, 49, 209, 120, 63, 49, 209, 120, 63, 127, 0, 0, 0, 0, 127, 0, 127, 0, 57, 0, 52, 49, 209, 120, 63, 49, 209, 120, 191, 49, 209, 120, 63, 127, 0, 0, 0, 0, 127, 0, 127, 0, 54, 0, 52, 49, 209, 120, 63, 49, 209, 120, 63, 49, 209, 120, 63, 0, 0, 127, 0, 0, 127, 0, 127, 0, 57, 0, 52, 49, 209, 120, 63, 49, 209, 120, 191, 49, 209, 120, 63, 0, 0, 127, 0, 0, 127, 0, 127, 0, 54, 0, 52, 49, 209, 120, 191, 49, 209, 120, 63, 49, 209, 120, 63, 0, 0, 127, 0, 0, 127, 0, 127, 0, 57, 0, 0, 49, 209, 120, 191, 49, 209, 120, 191, 49, 209, 120, 63, 0, 0, 127, 0, 0, 127, 0, 127, 0, 54, 0, 0, 49, 209, 120, 63, 49, 209, 120, 191, 49, 209, 120, 191, 0, 129, 0, 0, 127, 0, 0, 127, 0, 54, 0, 56, 49, 209, 120, 191, 49, 209, 120, 191, 49, 209, 120, 191, 0, 129, 0, 0, 127, 0, 0, 127, 0, 48, 0, 56, 49, 209, 120, 63, 49, 209, 120, 191, 49, 209, 120, 63, 0, 129, 0, 0, 127, 0, 0, 127, 0, 54, 0, 52, 49, 209, 120, 191, 49, 209, 120, 191, 49, 209, 120, 63, 0, 129, 0, 0, 127, 0, 0, 127, 0, 48, 0, 52, 49, 209, 120, 191, 49, 209, 120, 63, 49, 209, 120, 191, 0, 127, 0, 0, 129, 0, 0, 127, 0, 59, 0, 56, 49, 209, 120, 63, 49, 209, 120, 63, 49, 209, 120, 191, 0, 127, 0, 0, 129, 0, 0, 127, 0, 57, 0, 56, 49, 209, 120, 191, 49, 209, 120, 63, 49, 209, 120, 63, 0, 127, 0, 0, 129, 0, 0, 127, 0, 59, 0, 52, 49, 209, 120, 63, 49, 209, 120, 63, 49, 209, 120, 63, 0, 127, 0, 0, 129, 0, 0, 127, 0, 57, 0, 52 ),
"array_index_data": PoolByteArray( 0, 0, 1, 0, 2, 0, 2, 0, 1, 0, 3, 0, 4, 0, 5, 0, 6, 0, 6, 0, 5, 0, 7, 0, 8, 0, 9, 0, 10, 0, 10, 0, 9, 0, 11, 0, 12, 0, 13, 0, 14, 0, 14, 0, 13, 0, 15, 0, 16, 0, 17, 0, 18, 0, 18, 0, 17, 0, 19, 0, 20, 0, 21, 0, 22, 0, 22, 0, 21, 0, 23, 0 ),
"blend_shape_data": [  ],
"format": 97559,
"index_count": 36,
"material": SubResource( 1 ),
"name": "None",
"primitive": 4,
"skeleton_aabb": [  ],
"vertex_count": 24
}

[sub_resource type="SpatialMaterial" id=5]
resource_local_to_scene = true
albedo_color = Color( 1, 0.027451, 0.227451, 1 )

[sub_resource type="SpatialMaterial" id=4]
resource_local_to_scene = true
flags_unshaded = true
albedo_color = Color( 0, 0, 0.188235, 1 )

[sub_resource type="Animation" id=6]
resource_name = "vanish"
length = 2.0
tracks/0/type = "value"
tracks/0/path = NodePath(".:material/1:albedo_color")
tracks/0/interp = 1
tracks/0/loop_wrap = true
tracks/0/imported = false
tracks/0/enabled = true
tracks/0/keys = {
"times": PoolRealArray( 0, 2 ),
"transitions": PoolRealArray( 1, 1 ),
"update": 0,
"values": [ Color( 0, 0, 0.188235, 1 ), Color( 1, 0.027451, 0.227451, 1 ) ]
}

[node name="VanishingTile" instance=ExtResource( 1 )]
transform = Transform( 1, 0, 0, 0, -1.62921e-07, -1, 0, 1, -1.62921e-07, 0, 0, 0 )
mesh = SubResource( 2 )
material/0 = SubResource( 5 )
material/1 = SubResource( 4 )
script = ExtResource( 2 )

[node name="VanishPlayer" type="AnimationPlayer" parent="." index="2"]
anims/vanish = SubResource( 6 )
